EESchema Schematic File Version 4
EELAYER 30 0
EELAYER END
$Descr A4 11693 8268
encoding utf-8
Sheet 4 4
Title ""
Date ""
Rev ""
Comp ""
Comment1 ""
Comment2 ""
Comment3 ""
Comment4 ""
$EndDescr
$Comp
L Connector:Conn_01x04_Female J1
U 1 1 619CBC77
P 3150 2250
AR Path="/619B4A41/619CBC77" Ref="J1"  Part="1" 
AR Path="/61901DE9/619CBC77" Ref="J2"  Part="1" 
AR Path="/619033E5/619CBC77" Ref="J3"  Part="1" 
F 0 "J2" H 3178 2226 50  0000 L CNN
F 1 "Conn_01x04_Female" H 3178 2135 50  0000 L CNN
F 2 "Connector_PinSocket_2.54mm:PinSocket_1x04_P2.54mm_Vertical" H 3150 2250 50  0001 C CNN
F 3 "~" H 3150 2250 50  0001 C CNN
	1    3150 2250
	1    0    0    -1  
$EndComp
$Comp
L power:GND #PWR0102
U 1 1 619CBC7D
P 2750 1950
AR Path="/619B4A41/619CBC7D" Ref="#PWR0102"  Part="1" 
AR Path="/61901DE9/619CBC7D" Ref="#PWR0127"  Part="1" 
AR Path="/619033E5/619CBC7D" Ref="#PWR0142"  Part="1" 
F 0 "#PWR0127" H 2750 1700 50  0001 C CNN
F 1 "GND" H 2755 1777 50  0000 C CNN
F 2 "" H 2750 1950 50  0001 C CNN
F 3 "" H 2750 1950 50  0001 C CNN
	1    2750 1950
	1    0    0    -1  
$EndComp
$Comp
L power:+3V3 #PWR0103
U 1 1 619CBC83
P 2500 2250
AR Path="/619B4A41/619CBC83" Ref="#PWR0103"  Part="1" 
AR Path="/61901DE9/619CBC83" Ref="#PWR0128"  Part="1" 
AR Path="/619033E5/619CBC83" Ref="#PWR0143"  Part="1" 
F 0 "#PWR0128" H 2500 2100 50  0001 C CNN
F 1 "+3V3" H 2450 2400 50  0000 C CNN
F 2 "" H 2500 2250 50  0001 C CNN
F 3 "" H 2500 2250 50  0001 C CNN
	1    2500 2250
	1    0    0    -1  
$EndComp
Wire Wire Line
	2950 2150 2950 1900
Wire Wire Line
	2950 1900 2750 1900
Wire Wire Line
	2750 1900 2750 1950
Wire Wire Line
	2500 2250 2950 2250
$Comp
L Device:R R1
U 1 1 619CBC91
P 4400 2250
AR Path="/619B4A41/619CBC91" Ref="R1"  Part="1" 
AR Path="/61901DE9/619CBC91" Ref="R7"  Part="1" 
AR Path="/619033E5/619CBC91" Ref="R13"  Part="1" 
F 0 "R7" V 4193 2250 50  0000 C CNN
F 1 "10k" V 4284 2250 50  0000 C CNN
F 2 "Resistor_SMD:R_0603_1608Metric" V 4330 2250 50  0001 C CNN
F 3 "~" H 4400 2250 50  0001 C CNN
	1    4400 2250
	0    1    1    0   
$EndComp
$Comp
L Device:R R2
U 1 1 619CBC97
P 4400 2450
AR Path="/619B4A41/619CBC97" Ref="R2"  Part="1" 
AR Path="/61901DE9/619CBC97" Ref="R8"  Part="1" 
AR Path="/619033E5/619CBC97" Ref="R14"  Part="1" 
F 0 "R8" V 4500 2250 50  0000 C CNN
F 1 "10k" V 4500 2450 50  0000 C CNN
F 2 "Resistor_SMD:R_0603_1608Metric" V 4330 2450 50  0001 C CNN
F 3 "~" H 4400 2450 50  0001 C CNN
	1    4400 2450
	0    1    1    0   
$EndComp
$Comp
L power:+3V3 #PWR0104
U 1 1 619CBC9D
P 4150 2050
AR Path="/619B4A41/619CBC9D" Ref="#PWR0104"  Part="1" 
AR Path="/61901DE9/619CBC9D" Ref="#PWR0129"  Part="1" 
AR Path="/619033E5/619CBC9D" Ref="#PWR0144"  Part="1" 
F 0 "#PWR0129" H 4150 1900 50  0001 C CNN
F 1 "+3V3" H 4165 2223 50  0000 C CNN
F 2 "" H 4150 2050 50  0001 C CNN
F 3 "" H 4150 2050 50  0001 C CNN
	1    4150 2050
	1    0    0    -1  
$EndComp
Wire Wire Line
	4150 2050 4150 2250
Wire Wire Line
	4150 2250 4250 2250
Wire Wire Line
	4150 2250 4150 2450
Wire Wire Line
	4150 2450 4250 2450
Connection ~ 4150 2250
Wire Wire Line
	4550 2250 4650 2250
$Comp
L power:GND #PWR0105
U 1 1 619CBCA9
P 4750 2350
AR Path="/619B4A41/619CBCA9" Ref="#PWR0105"  Part="1" 
AR Path="/61901DE9/619CBCA9" Ref="#PWR0134"  Part="1" 
AR Path="/619033E5/619CBCA9" Ref="#PWR0145"  Part="1" 
F 0 "#PWR0134" H 4750 2100 50  0001 C CNN
F 1 "GND" V 4755 2222 50  0000 R CNN
F 2 "" H 4750 2350 50  0001 C CNN
F 3 "" H 4750 2350 50  0001 C CNN
	1    4750 2350
	0    1    1    0   
$EndComp
$Comp
L Device:R R3
U 1 1 619CBCAF
P 4650 1950
AR Path="/619B4A41/619CBCAF" Ref="R3"  Part="1" 
AR Path="/61901DE9/619CBCAF" Ref="R9"  Part="1" 
AR Path="/619033E5/619CBCAF" Ref="R15"  Part="1" 
F 0 "R9" H 4720 1996 50  0000 L CNN
F 1 "10k" H 4720 1905 50  0000 L CNN
F 2 "Resistor_SMD:R_0603_1608Metric" V 4580 1950 50  0001 C CNN
F 3 "~" H 4650 1950 50  0001 C CNN
	1    4650 1950
	1    0    0    -1  
$EndComp
$Comp
L Device:R R4
U 1 1 619CBCB5
P 4650 2750
AR Path="/619B4A41/619CBCB5" Ref="R4"  Part="1" 
AR Path="/61901DE9/619CBCB5" Ref="R10"  Part="1" 
AR Path="/619033E5/619CBCB5" Ref="R16"  Part="1" 
F 0 "R10" H 4720 2796 50  0000 L CNN
F 1 "10k" H 4720 2705 50  0000 L CNN
F 2 "Resistor_SMD:R_0603_1608Metric" V 4580 2750 50  0001 C CNN
F 3 "~" H 4650 2750 50  0001 C CNN
	1    4650 2750
	1    0    0    -1  
$EndComp
Wire Wire Line
	4650 2100 4650 2250
Wire Wire Line
	4550 2450 4650 2450
Wire Wire Line
	4650 2450 4650 2600
Wire Wire Line
	4650 2900 4650 3200
Wire Wire Line
	4650 2250 4850 2250
Connection ~ 4650 2250
Wire Wire Line
	4750 2350 4850 2350
Wire Wire Line
	4650 2450 4850 2450
Connection ~ 4650 2450
$Comp
L Device:R R5
U 1 1 619CBCC8
P 6350 2600
AR Path="/619B4A41/619CBCC8" Ref="R5"  Part="1" 
AR Path="/61901DE9/619CBCC8" Ref="R11"  Part="1" 
AR Path="/619033E5/619CBCC8" Ref="R17"  Part="1" 
F 0 "R11" V 6143 2600 50  0000 C CNN
F 1 "10k" V 6234 2600 50  0000 C CNN
F 2 "Resistor_SMD:R_0603_1608Metric" V 6280 2600 50  0001 C CNN
F 3 "~" H 6350 2600 50  0001 C CNN
	1    6350 2600
	-1   0    0    1   
$EndComp
$Comp
L power:GND #PWR0106
U 1 1 619CBCCE
P 6350 2900
AR Path="/619B4A41/619CBCCE" Ref="#PWR0106"  Part="1" 
AR Path="/61901DE9/619CBCCE" Ref="#PWR0135"  Part="1" 
AR Path="/619033E5/619CBCCE" Ref="#PWR0146"  Part="1" 
F 0 "#PWR0135" H 6350 2650 50  0001 C CNN
F 1 "GND" H 6355 2727 50  0000 C CNN
F 2 "" H 6350 2900 50  0001 C CNN
F 3 "" H 6350 2900 50  0001 C CNN
	1    6350 2900
	1    0    0    -1  
$EndComp
$Comp
L SwitchBoard:NCP5623 U2
U 1 1 619CBCD8
P 8150 2450
AR Path="/619B4A41/619CBCD8" Ref="U2"  Part="1" 
AR Path="/61901DE9/619CBCD8" Ref="U3"  Part="1" 
AR Path="/619033E5/619CBCD8" Ref="U4"  Part="1" 
F 0 "U3" H 8350 3000 50  0000 C CNN
F 1 "NCP5623" H 7750 3100 50  0000 C CNN
F 2 "Package_SO:TSSOP-14_4.4x5mm_P0.65mm" H 8150 2450 50  0001 C CNN
F 3 "" H 8150 2450 50  0001 C CNN
	1    8150 2450
	1    0    0    -1  
$EndComp
$Comp
L SwitchBoard:Rotary_Encoder_Switch_RGB SW1
U 1 1 619CBCDE
P 5300 2350
AR Path="/619B4A41/619CBCDE" Ref="SW1"  Part="1" 
AR Path="/61901DE9/619CBCDE" Ref="SW2"  Part="1" 
AR Path="/619033E5/619CBCDE" Ref="SW3"  Part="1" 
F 0 "SW2" H 5300 2767 50  0000 C CNN
F 1 "Rotary_Encoder_Switch_RGB" H 5300 2676 50  0000 C CNN
F 2 "SwitchBoard:FUTAI_EC12_SW_RGB" H 5000 2510 50  0001 C CNN
F 3 "~" H 5180 2610 50  0001 C CNN
	1    5300 2350
	1    0    0    -1  
$EndComp
$Comp
L power:+3.3V #PWR0109
U 1 1 619CBCE4
P 8150 1650
AR Path="/619B4A41/619CBCE4" Ref="#PWR0109"  Part="1" 
AR Path="/61901DE9/619CBCE4" Ref="#PWR0136"  Part="1" 
AR Path="/619033E5/619CBCE4" Ref="#PWR0147"  Part="1" 
F 0 "#PWR0136" H 8150 1500 50  0001 C CNN
F 1 "+3.3V" H 8165 1823 50  0000 C CNN
F 2 "" H 8150 1650 50  0001 C CNN
F 3 "" H 8150 1650 50  0001 C CNN
	1    8150 1650
	1    0    0    -1  
$EndComp
Wire Wire Line
	8150 1650 8150 1800
Wire Wire Line
	8150 1800 8050 1800
Wire Wire Line
	8050 1800 8050 1900
Wire Wire Line
	8250 1900 8250 1800
Wire Wire Line
	8250 1800 8150 1800
Connection ~ 8150 1800
$Comp
L power:GND #PWR0110
U 1 1 619CBCF0
P 8150 3100
AR Path="/619B4A41/619CBCF0" Ref="#PWR0110"  Part="1" 
AR Path="/61901DE9/619CBCF0" Ref="#PWR0137"  Part="1" 
AR Path="/619033E5/619CBCF0" Ref="#PWR0148"  Part="1" 
F 0 "#PWR0137" H 8150 2850 50  0001 C CNN
F 1 "GND" H 8155 2927 50  0000 C CNN
F 2 "" H 8150 3100 50  0001 C CNN
F 3 "" H 8150 3100 50  0001 C CNN
	1    8150 3100
	1    0    0    -1  
$EndComp
Wire Wire Line
	8050 2950 8050 3050
Wire Wire Line
	8050 3050 8150 3050
Wire Wire Line
	8250 3050 8250 2950
Wire Wire Line
	8150 3100 8150 3050
Connection ~ 8150 3050
Wire Wire Line
	8150 3050 8250 3050
$Comp
L Device:R R6
U 1 1 619CBCFC
P 7700 2850
AR Path="/619B4A41/619CBCFC" Ref="R6"  Part="1" 
AR Path="/61901DE9/619CBCFC" Ref="R12"  Part="1" 
AR Path="/619033E5/619CBCFC" Ref="R18"  Part="1" 
F 0 "R12" H 7770 2896 50  0000 L CNN
F 1 "62k" H 7770 2805 50  0000 L CNN
F 2 "Resistor_SMD:R_0603_1608Metric" V 7630 2850 50  0001 C CNN
F 3 "~" H 7700 2850 50  0001 C CNN
	1    7700 2850
	1    0    0    -1  
$EndComp
$Comp
L power:GND #PWR0111
U 1 1 619CBD02
P 7700 3150
AR Path="/619B4A41/619CBD02" Ref="#PWR0111"  Part="1" 
AR Path="/61901DE9/619CBD02" Ref="#PWR0138"  Part="1" 
AR Path="/619033E5/619CBD02" Ref="#PWR0149"  Part="1" 
F 0 "#PWR0138" H 7700 2900 50  0001 C CNN
F 1 "GND" H 7705 2977 50  0000 C CNN
F 2 "" H 7700 3150 50  0001 C CNN
F 3 "" H 7700 3150 50  0001 C CNN
	1    7700 3150
	1    0    0    -1  
$EndComp
Wire Wire Line
	7800 2600 7700 2600
Wire Wire Line
	7700 2600 7700 2700
Wire Wire Line
	7700 3000 7700 3150
Wire Wire Line
	5750 2250 6000 2250
Wire Wire Line
	5750 2450 6000 2450
Wire Wire Line
	5750 2550 6000 2550
Text Label 5800 2250 0    50   ~ 0
LED_B
Text Label 5800 2450 0    50   ~ 0
LED_G
Text Label 5800 2550 0    50   ~ 0
LED_R
Wire Wire Line
	8500 2300 8900 2300
Wire Wire Line
	8500 2450 8900 2450
Wire Wire Line
	8500 2600 8900 2600
Text Label 8700 2300 0    50   ~ 0
LED_R
Text Label 8700 2450 0    50   ~ 0
LED_G
Text Label 8700 2600 0    50   ~ 0
LED_B
$Comp
L power:+3V3 #PWR0112
U 1 1 619CBD1B
P 6100 1650
AR Path="/619B4A41/619CBD1B" Ref="#PWR0112"  Part="1" 
AR Path="/61901DE9/619CBD1B" Ref="#PWR0139"  Part="1" 
AR Path="/619033E5/619CBD1B" Ref="#PWR0150"  Part="1" 
F 0 "#PWR0139" H 6100 1500 50  0001 C CNN
F 1 "+3V3" H 6115 1823 50  0000 C CNN
F 2 "" H 6100 1650 50  0001 C CNN
F 3 "" H 6100 1650 50  0001 C CNN
	1    6100 1650
	1    0    0    -1  
$EndComp
Wire Wire Line
	6100 1650 6100 1750
$Comp
L Device:CP C1
U 1 1 619CBD22
P 6450 1750
AR Path="/619B4A41/619CBD22" Ref="C1"  Part="1" 
AR Path="/61901DE9/619CBD22" Ref="C31"  Part="1" 
AR Path="/619033E5/619CBD22" Ref="C33"  Part="1" 
F 0 "C31" V 6195 1750 50  0000 C CNN
F 1 "1uF/6.3v" V 6286 1750 50  0000 C CNN
F 2 "Capacitor_SMD:C_1206_3216Metric" H 6488 1600 50  0001 C CNN
F 3 "~" H 6450 1750 50  0001 C CNN
	1    6450 1750
	0    1    1    0   
$EndComp
$Comp
L power:GND #PWR0125
U 1 1 619CBD28
P 6700 1900
AR Path="/619B4A41/619CBD28" Ref="#PWR0125"  Part="1" 
AR Path="/61901DE9/619CBD28" Ref="#PWR0140"  Part="1" 
AR Path="/619033E5/619CBD28" Ref="#PWR0151"  Part="1" 
F 0 "#PWR0140" H 6700 1650 50  0001 C CNN
F 1 "GND" H 6705 1727 50  0000 C CNN
F 2 "" H 6700 1900 50  0001 C CNN
F 3 "" H 6700 1900 50  0001 C CNN
	1    6700 1900
	1    0    0    -1  
$EndComp
Wire Wire Line
	6100 1750 6300 1750
Connection ~ 6100 1750
Wire Wire Line
	6600 1750 6700 1750
Wire Wire Line
	6700 1750 6700 1900
$Comp
L Device:CP C2
U 1 1 619CBD33
P 8600 1800
AR Path="/619B4A41/619CBD33" Ref="C2"  Part="1" 
AR Path="/61901DE9/619CBD33" Ref="C32"  Part="1" 
AR Path="/619033E5/619CBD33" Ref="C34"  Part="1" 
F 0 "C32" V 8345 1800 50  0000 C CNN
F 1 "1uF/6.3v" V 8436 1800 50  0000 C CNN
F 2 "Capacitor_SMD:C_1206_3216Metric" H 8638 1650 50  0001 C CNN
F 3 "~" H 8600 1800 50  0001 C CNN
	1    8600 1800
	0    1    1    0   
$EndComp
$Comp
L power:GND #PWR0126
U 1 1 619CBD39
P 8850 1950
AR Path="/619B4A41/619CBD39" Ref="#PWR0126"  Part="1" 
AR Path="/61901DE9/619CBD39" Ref="#PWR0141"  Part="1" 
AR Path="/619033E5/619CBD39" Ref="#PWR0152"  Part="1" 
F 0 "#PWR0141" H 8850 1700 50  0001 C CNN
F 1 "GND" H 8855 1777 50  0000 C CNN
F 2 "" H 8850 1950 50  0001 C CNN
F 3 "" H 8850 1950 50  0001 C CNN
	1    8850 1950
	1    0    0    -1  
$EndComp
Wire Wire Line
	8750 1800 8850 1800
Wire Wire Line
	8850 1800 8850 1950
Wire Wire Line
	8450 1800 8250 1800
Connection ~ 8250 1800
Text HLabel 2650 2450 0    50   Input ~ 0
SDA
Text HLabel 2650 2350 0    50   Input ~ 0
SCL
Wire Wire Line
	2650 2350 2950 2350
Wire Wire Line
	2650 2450 2950 2450
Text HLabel 7450 2300 0    50   Input ~ 0
SDA
Text HLabel 7450 2400 0    50   Input ~ 0
SCL
Wire Wire Line
	7450 2300 7800 2300
Wire Wire Line
	7450 2400 7800 2400
Text HLabel 4650 1550 1    50   Input ~ 0
ROT_A
Text HLabel 4650 3200 3    50   Input ~ 0
ROT_B
Wire Wire Line
	4650 1550 4650 1800
Text HLabel 6650 2350 2    50   Input ~ 0
ROT_S
Wire Wire Line
	6100 2150 5750 2150
Wire Wire Line
	6100 1750 6100 2150
Wire Wire Line
	5750 2350 6350 2350
Wire Wire Line
	6350 2350 6350 2450
Connection ~ 6350 2350
Wire Wire Line
	6350 2350 6650 2350
Wire Wire Line
	6350 2750 6350 2900
$Comp
L Connector:Conn_01x04_Female J3
U 1 1 618C4C26
P 3150 3100
AR Path="/619B4A41/618C4C26" Ref="J3"  Part="1" 
AR Path="/61901DE9/618C4C26" Ref="J4"  Part="1" 
AR Path="/619033E5/618C4C26" Ref="J?"  Part="1" 
F 0 "J4" H 3178 3076 50  0000 L CNN
F 1 "Conn_01x04_Female" H 3178 2985 50  0000 L CNN
F 2 "Connector_PinSocket_2.54mm:PinSocket_1x04_P2.54mm_Vertical" H 3150 3100 50  0001 C CNN
F 3 "~" H 3150 3100 50  0001 C CNN
	1    3150 3100
	1    0    0    -1  
$EndComp
$Comp
L power:GND #PWR0142
U 1 1 618C4C2C
P 2750 2800
AR Path="/619B4A41/618C4C2C" Ref="#PWR0142"  Part="1" 
AR Path="/61901DE9/618C4C2C" Ref="#PWR0144"  Part="1" 
AR Path="/619033E5/618C4C2C" Ref="#PWR?"  Part="1" 
F 0 "#PWR0144" H 2750 2550 50  0001 C CNN
F 1 "GND" H 2755 2627 50  0000 C CNN
F 2 "" H 2750 2800 50  0001 C CNN
F 3 "" H 2750 2800 50  0001 C CNN
	1    2750 2800
	1    0    0    -1  
$EndComp
$Comp
L power:+3V3 #PWR0143
U 1 1 618C4C32
P 2500 3100
AR Path="/619B4A41/618C4C32" Ref="#PWR0143"  Part="1" 
AR Path="/61901DE9/618C4C32" Ref="#PWR0145"  Part="1" 
AR Path="/619033E5/618C4C32" Ref="#PWR?"  Part="1" 
F 0 "#PWR0145" H 2500 2950 50  0001 C CNN
F 1 "+3V3" H 2450 3250 50  0000 C CNN
F 2 "" H 2500 3100 50  0001 C CNN
F 3 "" H 2500 3100 50  0001 C CNN
	1    2500 3100
	1    0    0    -1  
$EndComp
Wire Wire Line
	2950 3000 2950 2750
Wire Wire Line
	2950 2750 2750 2750
Wire Wire Line
	2750 2750 2750 2800
Wire Wire Line
	2500 3100 2950 3100
Text HLabel 2650 3300 0    50   Input ~ 0
SDA
Text HLabel 2650 3200 0    50   Input ~ 0
SCL
Wire Wire Line
	2650 3200 2950 3200
Wire Wire Line
	2650 3300 2950 3300
$EndSCHEMATC
