EESchema Schematic File Version 4
EELAYER 30 0
EELAYER END
$Descr A4 11693 8268
encoding utf-8
Sheet 2 4
Title ""
Date ""
Rev ""
Comp ""
Comment1 ""
Comment2 ""
Comment3 ""
Comment4 ""
$EndDescr
Text Notes 1600 1600 0    50   ~ 0
Mounting holes
$Comp
L Mechanical:MountingHole H?
U 1 1 5FC0D03D
P 1900 1850
AR Path="/5FC50B89/5FC0D03D" Ref="H?"  Part="1" 
AR Path="/5FC0C355/5FC0D03D" Ref="H1001"  Part="1" 
AR Path="/6193AFB9/5FC0D03D" Ref="H1001"  Part="1" 
F 0 "H1001" H 2000 1896 50  0000 L CNN
F 1 "MountingHole" H 2000 1805 50  0000 L CNN
F 2 "SwitchBoard:MountingSlot_3.2mm_M3_Unplated" H 1900 1850 50  0001 C CNN
F 3 "~" H 1900 1850 50  0001 C CNN
	1    1900 1850
	1    0    0    -1  
$EndComp
$Comp
L Mechanical:MountingHole H?
U 1 1 5FC0D043
P 1900 2150
AR Path="/5FC50B89/5FC0D043" Ref="H?"  Part="1" 
AR Path="/5FC0C355/5FC0D043" Ref="H1002"  Part="1" 
AR Path="/6193AFB9/5FC0D043" Ref="H1002"  Part="1" 
F 0 "H1002" H 2000 2196 50  0000 L CNN
F 1 "MountingHole" H 2000 2105 50  0000 L CNN
F 2 "SwitchBoard:MountingSlot_3.2mm_M3_Unplated" H 1900 2150 50  0001 C CNN
F 3 "~" H 1900 2150 50  0001 C CNN
	1    1900 2150
	1    0    0    -1  
$EndComp
$EndSCHEMATC
